PISA 2022
…
3
CargaFactor1

range: -0.2-1.0

4
CargaFactor2

range: -0.3-1.0

View(tabla_resultados)
tabla_resultados

# A tibble: 728 × 4
   Variable   CNT                     CargaFactor1 CargaFactor2
   <chr>      <chr+lbl>                      <dbl>        <dbl>
 1 IC183Q01JA ALB [Albania]                  0.921      -0.0975
 2 IC183Q01JA ARG [Argentina]                0.896      -0.210 
 3 IC183Q01JA AUS [Australia]                0.910      -0.193 
 4 IC183Q01JA AUT [Austria]                  0.860      -0.207 
 5 IC183Q01JA BEL [Belgium]                  0.852      -0.176 
 6 IC183Q01JA BRA [Brazil]                   0.968      -0.244 
 7 IC183Q01JA BRN [Brunei Darussalam]        0.937      -0.188 
 8 IC183Q01JA BGR [Bulgaria]                 0.817      -0.185 
 9 IC183Q01JA CHL [Chile]                    0.869      -0.183 
10 IC183Q01JA TAP [Chinese Taipei]           0.897      -0.189 
# ℹ 718 more rows
…
